992
-80 -160 -240 488
80 -160 -240 488
-24 -16 -16 -16 16 -8 -48 -48 -48 -48 -48 -32 -32 -32 -40 -40 -40 -40 256
-56 -16 -32 864
216 -32 -16 40 -32 -8 -72 520
80 -64 -8 24 -16 -40 -32 672
-40 944
-40 -24 912
-800 184
80 -80 816
-16 -8 952
-24 16 -8 920
992
32 -8 24 -32 -8 848
32 -32 -24 -272 600
32 -56 888
-320 -128 -224 -296
992
-8 976
-8 -8 960
248 -24 -16 -432 240
472 -88 416
992
24 -8 72 -8 848
