-120 -40 -520 -8 -88 -24 144
512 -8 -16 16 -24 -32 -24 -32 264
248 -24 -16 -432 240
472 -88 416
-8 48 -32 880
-8 976
992
328 -16 -24 600
-48 -56 -32 -24 800
-24 960
176 -560 240
-72 -8 -64 -32 32 -24 -32 -40 -48 -168 392
-80 -56 -64 -432 328
-96 -40 -32 -136 -16 632
-16 32 -40 -72 800
-264 -96 -32 576
-48 -528 48 -24 312
-40 -64 -56 808
184 -56 736
-560 -32 -24 -224 -40 72
-872 112
-752 -8 40 -168
96 -48 48 -32 32 -40 -48 -56 528
56 -40 -48 -56 40 -40 -344 -24 -32 -48 184
